[
 {
   "ID": 1,
   "Name": "Cluster",
   "Level": "primary",
   "Characteristics": "spatial grouping",
   "Description": "Cluster is a special characteristic of a subgraph, which leads to a spatial grouping. It is described with \"Subgraph Cluster[_Postfix] {...}\". Without the \"Cluster\"-Prefix it is just a non-spatial grouping, see subgraph.   Cluster can have labels, style and can contain nodes, edges or other subgraphs.  \n\n2do: 1-2 Cluster Examples.  \n2do: Link to Cluster-Attributes.  ",
   "Weight": "40",
   "FIELD7": ""
 },
 {
   "ID": 2,
   "Name": "Edge",
   "Level": "primary",
   "Characteristics": "a -> b, a -- b",
   "Description": "The connection between two nodes is an edge. An edge can be directed, for e.g. a -> b or non-directed, for e.e.g a -- b.  Edges can have arrows, labels, style.  \n\n2do: Overview Arrows.  \n2do: Link to Edge Attributes",
   "Weight": "30",
   "FIELD7": ""
 },
 {
   "ID": 3,
   "Name": "Graph",
   "Level": "primary",
   "Characteristics": "digraph, graph",
   "Description": "GraphViz uses the DOT language to describe a graph. There are a \"digraph\" for a directed graph and a \"graph\" for unidirected graphs.  \n\n2do: List example empty graphs with styling heraders.  \n2do: List all 1st class entities: defs, node, subgraph, rank, ...  \n2do: Link to all graph attributes.  ",
   "Weight": "10",
   "FIELD7": ""
 },
 {
   "ID": 4,
   "Name": "Group",
   "Level": "secondary",
   "Characteristics": "nodes",
   "Description": "tbd.  \n2do: Descriptions & Explanations.  \n\n2do: 1-2 Examples.  \n2do: Link to Cluster.   ",
   "Weight": "120",
   "FIELD7": ""
 },
 {
   "ID": 5,
   "Name": "Label",
   "Level": "secondary",
   "Characteristics": "text, html",
   "Description": "Describes entities with textual informations. Because of the vital meaning of an label and their amount of attributes as record, text oder html and their constrains, it makes sense to define a label as an entity, even it is technically just an attribute.  \n2do: More Descriptions & Explanations.  \n2do: 5-6 Examples.  \n\n2do: Link/Merge Label-Attribute, List of Label-Specific Attributes (evt. develop its owhn attribute-category)   ",
   "Weight": "100",
   "FIELD7": ""
 },
 {
   "ID": 6,
   "Name": "Layers",
   "Level": "secondary",
   "Characteristics": "list of layers",
   "Description": "tbd.  \n2do: Descriptions & Explanations.  \n\n2do: 1-2 Examples.  \n2do: Link/Merge Layer-Attributes   ",
   "Weight": "130",
   "FIELD7": ""
 },
 {
   "ID": 7,
   "Name": "Node",
   "Level": "primary",
   "Characteristics": "polygon-based, record-based, user-defined",
   "Description": "Node is a primary 1st class element in a graph. Shapes of nodes can be polygon-based, record-based or user-defined. They can be assorted into cluster, layer or ranks. Nodes can have label and style. See nodes-attributes.  \n\n2do: Overview Shapes.  \n2do: Link to Node Attributes",
   "Weight": "20",
   "FIELD7": ""
 },
 {
   "ID": 8,
   "Name": "Rank",
   "Level": "secondary",
   "Characteristics": "same, min, source, max, sink",
   "Description": "With rank you can influence the spatial disposal of nodes while calculating a graph. Without an individual setting the rank of a node in a calculated graph follows the number of edges to the root. To change this default rank behaviour you can use the attributes same, min, source, max, sink.  \n\n2do: Examples for all 5 Attributes.  \n2do: Link/Merge to Rank Attrbute (evt. merge them here)  ",
   "Weight": "110",
   "FIELD7": ""
 },
 {
   "ID": 9,
   "Name": "Subgraph",
   "Level": "primary",
   "Characteristics": "cluster, non-cluster",
   "Description": "Subgraph is a grouping for entities. With a subgraph it is possible to group entities like nodes, edges or other subgraphs together. Only if the name of a subgraph begins with \"Cluster\" this grouping becomes a spatial dimension.  \n\n2do: 1-2 Examples.  \n2do: Link to Cluster",
   "Weight": "50",
   "FIELD7": ""
 }
]